%YAML 1.1
%TAG !u! tag:unity3d.com,2011:
--- !u!29 &1
OcclusionCullingSettings:
  m_ObjectHideFlags: 0
  serializedVersion: 2
  m_OcclusionBakeSettings:
    smallestOccluder: 5
    smallestHole: 0.25
    backfaceThreshold: 100
  m_SceneGUID: 00000000000000000000000000000000
  m_OcclusionCullingData: {fileID: 0}
--- !u!104 &2
RenderSettings:
  m_ObjectHideFlags: 0
  serializedVersion: 9
  m_Fog: 0
  m_FogColor: {r: 0.5, g: 0.5, b: 0.5, a: 1}
  m_FogMode: 3
  m_FogDensity: 0.01
  m_LinearFogStart: 0
  m_LinearFogEnd: 300
  m_AmbientSkyColor: {r: 0.212, g: 0.227, b: 0.259, a: 1}
  m_AmbientEquatorColor: {r: 0.114, g: 0.125, b: 0.133, a: 1}
  m_AmbientGroundColor: {r: 0.047, g: 0.043, b: 0.035, a: 1}
  m_AmbientIntensity: 1
  m_AmbientMode: 3
  m_SubtractiveShadowColor: {r: 0.42, g: 0.478, b: 0.627, a: 1}
  m_SkyboxMaterial: {fileID: 0}
  m_HaloStrength: 0.5
  m_FlareStrength: 1
  m_FlareFadeSpeed: 3
  m_HaloTexture: {fileID: 0}
  m_SpotCookie: {fileID: 10001, guid: 0000000000000000e000000000000000, type: 0}
  m_DefaultReflectionMode: 0
  m_DefaultReflectionResolution: 128
  m_ReflectionBounces: 1
  m_ReflectionIntensity: 1
  m_CustomReflection: {fileID: 0}
  m_Sun: {fileID: 0}
  m_IndirectSpecularColor: {r: 0, g: 0, b: 0, a: 1}
  m_UseRadianceAmbientProbe: 0
--- !u!157 &3
LightmapSettings:
  m_ObjectHideFlags: 0
  serializedVersion: 12
  m_GIWorkflowMode: 1
  m_GISettings:
    serializedVersion: 2
    m_BounceScale: 1
    m_IndirectOutputScale: 1
    m_AlbedoBoost: 1
    m_EnvironmentLightingMode: 0
    m_EnableBakedLightmaps: 0
    m_EnableRealtimeLightmaps: 0
  m_LightmapEditorSettings:
    serializedVersion: 12
    m_Resolution: 2
    m_BakeResolution: 40
    m_AtlasSize: 1024
    m_AO: 0
    m_AOMaxDistance: 1
    m_CompAOExponent: 1
    m_CompAOExponentDirect: 0
    m_ExtractAmbientOcclusion: 0
    m_Padding: 2
    m_LightmapParameters: {fileID: 0}
    m_LightmapsBakeMode: 1
    m_TextureCompression: 1
    m_FinalGather: 0
    m_FinalGatherFiltering: 1
    m_FinalGatherRayCount: 256
    m_ReflectionCompression: 2
    m_MixedBakeMode: 2
    m_BakeBackend: 1
    m_PVRSampling: 1
    m_PVRDirectSampleCount: 32
    m_PVRSampleCount: 512
    m_PVRBounces: 2
    m_PVREnvironmentSampleCount: 256
    m_PVREnvironmentReferencePointCount: 2048
    m_PVRFilteringMode: 1
    m_PVRDenoiserTypeDirect: 1
    m_PVRDenoiserTypeIndirect: 1
    m_PVRDenoiserTypeAO: 1
    m_PVRFilterTypeDirect: 0
    m_PVRFilterTypeIndirect: 0
    m_PVRFilterTypeAO: 0
    m_PVREnvironmentMIS: 1
    m_PVRCulling: 1
    m_PVRFilteringGaussRadiusDirect: 1
    m_PVRFilteringGaussRadiusIndirect: 5
    m_PVRFilteringGaussRadiusAO: 2
    m_PVRFilteringAtrousPositionSigmaDirect: 0.5
    m_PVRFilteringAtrousPositionSigmaIndirect: 2
    m_PVRFilteringAtrousPositionSigmaAO: 1
    m_ExportTrainingData: 0
    m_TrainingDataDestination: TrainingData
    m_LightProbeSampleCountMultiplier: 4
  m_LightingDataAsset: {fileID: 0}
  m_LightingSettings: {fileID: 0}
--- !u!196 &4
NavMeshSettings:
  serializedVersion: 2
  m_ObjectHideFlags: 0
  m_BuildSettings:
    serializedVersion: 2
    agentTypeID: 0
    agentRadius: 0.5
    agentHeight: 2
    agentSlope: 45
    agentClimb: 0.4
    ledgeDropHeight: 0
    maxJumpAcrossDistance: 0
    minRegionArea: 2
    manualCellSize: 0
    cellSize: 0.16666667
    manualTileSize: 0
    tileSize: 256
    accuratePlacement: 0
    maxJobWorkers: 0
    preserveTilesOutsideBounds: 0
    debug:
      m_Flags: 0
  m_NavMeshData: {fileID: 0}
--- !u!1 &127467999
GameObject:
  m_ObjectHideFlags: 0
  m_CorrespondingSourceObject: {fileID: 0}
  m_PrefabInstance: {fileID: 0}
  m_PrefabAsset: {fileID: 0}
  serializedVersion: 6
  m_Component:
  - component: {fileID: 127468003}
  - component: {fileID: 127468002}
  - component: {fileID: 127468001}
  - component: {fileID: 127468000}
  m_Layer: 5
  m_Name: Canvas
  m_TagString: Untagged
  m_Icon: {fileID: 0}
  m_NavMeshLayer: 0
  m_StaticEditorFlags: 0
  m_IsActive: 1
--- !u!114 &127468000
MonoBehaviour:
  m_ObjectHideFlags: 0
  m_CorrespondingSourceObject: {fileID: 0}
  m_PrefabInstance: {fileID: 0}
  m_PrefabAsset: {fileID: 0}
  m_GameObject: {fileID: 127467999}
  m_Enabled: 1
  m_EditorHideFlags: 0
  m_Script: {fileID: 11500000, guid: dc42784cf147c0c48a680349fa168899, type: 3}
  m_Name: 
  m_EditorClassIdentifier: 
  m_IgnoreReversedGraphics: 1
  m_BlockingObjects: 0
  m_BlockingMask:
    serializedVersion: 2
    m_Bits: 4294967295
--- !u!114 &127468001
MonoBehaviour:
  m_ObjectHideFlags: 0
  m_CorrespondingSourceObject: {fileID: 0}
  m_PrefabInstance: {fileID: 0}
  m_PrefabAsset: {fileID: 0}
  m_GameObject: {fileID: 127467999}
  m_Enabled: 1
  m_EditorHideFlags: 0
  m_Script: {fileID: 11500000, guid: 0cd44c1031e13a943bb63640046fad76, type: 3}
  m_Name: 
  m_EditorClassIdentifier: 
  m_UiScaleMode: 1
  m_ReferencePixelsPerUnit: 100
  m_ScaleFactor: 1
  m_ReferenceResolution: {x: 500, y: 400}
  m_ScreenMatchMode: 0
  m_MatchWidthOrHeight: 0
  m_PhysicalUnit: 3
  m_FallbackScreenDPI: 96
  m_DefaultSpriteDPI: 96
  m_DynamicPixelsPerUnit: 1
--- !u!223 &127468002
Canvas:
  m_ObjectHideFlags: 0
  m_CorrespondingSourceObject: {fileID: 0}
  m_PrefabInstance: {fileID: 0}
  m_PrefabAsset: {fileID: 0}
  m_GameObject: {fileID: 127467999}
  m_Enabled: 1
  serializedVersion: 3
  m_RenderMode: 0
  m_Camera: {fileID: 0}
  m_PlaneDistance: 100
  m_PixelPerfect: 0
  m_ReceivesEvents: 1
  m_OverrideSorting: 0
  m_OverridePixelPerfect: 0
  m_SortingBucketNormalizedSize: 0
  m_AdditionalShaderChannelsFlag: 25
  m_SortingLayerID: 0
  m_SortingOrder: 0
  m_TargetDisplay: 0
--- !u!224 &127468003
RectTransform:
  m_ObjectHideFlags: 0
  m_CorrespondingSourceObject: {fileID: 0}
  m_PrefabInstance: {fileID: 0}
  m_PrefabAsset: {fileID: 0}
  m_GameObject: {fileID: 127467999}
  m_LocalRotation: {x: 0, y: 0, z: 0, w: 1}
  m_LocalPosition: {x: 0, y: 0, z: 0}
  m_LocalScale: {x: 0, y: 0, z: 0}
  m_Children:
  - {fileID: 513747188}
  - {fileID: 768579870}
  - {fileID: 1761293919}
  - {fileID: 958138828}
  - {fileID: 364690330396143500}
  - {fileID: 1970151660}
  m_Father: {fileID: 0}
  m_RootOrder: 2
  m_LocalEulerAnglesHint: {x: 0, y: 0, z: 0}
  m_AnchorMin: {x: 0, y: 0}
  m_AnchorMax: {x: 0, y: 0}
  m_AnchoredPosition: {x: 0, y: 0}
  m_SizeDelta: {x: 0, y: 0}
  m_Pivot: {x: 0, y: 0}
--- !u!1 &329616104 stripped
GameObject:
  m_CorrespondingSourceObject: {fileID: 531956183825779474, guid: 3261ce32798767443b44b31f290ade01, type: 3}
  m_PrefabInstance: {fileID: 364690330396143499}
  m_PrefabAsset: {fileID: 0}
--- !u!82 &329616108
AudioSource:
  m_ObjectHideFlags: 0
  m_CorrespondingSourceObject: {fileID: 0}
  m_PrefabInstance: {fileID: 0}
  m_PrefabAsset: {fileID: 0}
  m_GameObject: {fileID: 329616104}
  m_Enabled: 1
  serializedVersion: 4
  OutputAudioMixerGroup: {fileID: 0}
  m_audioClip: {fileID: 8300000, guid: f570ee292c56dd44c8944a705301599a, type: 3}
  m_PlayOnAwake: 1
  m_Volume: 0.15
  m_Pitch: 1
  Loop: 0
  Mute: 0
  Spatialize: 0
  SpatializePostEffects: 0
  Priority: 128
  DopplerLevel: 1
  MinDistance: 1
  MaxDistance: 500
  Pan2D: 0
  rolloffMode: 0
  BypassEffects: 0
  BypassListenerEffects: 0
  BypassReverbZones: 0
  rolloffCustomCurve:
    serializedVersion: 2
    m_Curve:
    - serializedVersion: 3
      time: 0
      value: 1
      inSlope: 0
      outSlope: 0
      tangentMode: 0
      weightedMode: 0
      inWeight: 0.33333334
      outWeight: 0.33333334
    - serializedVersion: 3
      time: 1
      value: 0
      inSlope: 0
      outSlope: 0
      tangentMode: 0
      weightedMode: 0
      inWeight: 0.33333334
      outWeight: 0.33333334
    m_PreInfinity: 2
    m_PostInfinity: 2
    m_RotationOrder: 4
  panLevelCustomCurve:
    serializedVersion: 2
    m_Curve:
    - serializedVersion: 3
      time: 0
      value: 0
      inSlope: 0
      outSlope: 0
      tangentMode: 0
      weightedMode: 0
      inWeight: 0.33333334
      outWeight: 0.33333334
    m_PreInfinity: 2
    m_PostInfinity: 2
    m_RotationOrder: 4
  spreadCustomCurve:
    serializedVersion: 2
    m_Curve:
    - serializedVersion: 3
      time: 0
      value: 0
      inSlope: 0
      outSlope: 0
      tangentMode: 0
      weightedMode: 0
      inWeight: 0.33333334
      outWeight: 0.33333334
    m_PreInfinity: 2
    m_PostInfinity: 2
    m_RotationOrder: 4
  reverbZoneMixCustomCurve:
    serializedVersion: 2
    m_Curve:
    - serializedVersion: 3
      time: 0
      value: 1
      inSlope: 0
      outSlope: 0
      tangentMode: 0
      weightedMode: 0
      inWeight: 0.33333334
      outWeight: 0.33333334
    m_PreInfinity: 2
    m_PostInfinity: 2
    m_RotationOrder: 4
--- !u!224 &513747188 stripped
RectTransform:
  m_CorrespondingSourceObject: {fileID: 4753090494367720671, guid: aed5558d509075443922e3d969d511d8, type: 3}
  m_PrefabInstance: {fileID: 1525823884214150305}
  m_PrefabAsset: {fileID: 0}
--- !u!1 &689663088
GameObject:
  m_ObjectHideFlags: 0
  m_CorrespondingSourceObject: {fileID: 0}
  m_PrefabInstance: {fileID: 0}
  m_PrefabAsset: {fileID: 0}
  serializedVersion: 6
  m_Component:
  - component: {fileID: 689663091}
  - component: {fileID: 689663090}
  - component: {fileID: 689663089}
  m_Layer: 0
  m_Name: EventSystem
  m_TagString: Untagged
  m_Icon: {fileID: 0}
  m_NavMeshLayer: 0
  m_StaticEditorFlags: 0
  m_IsActive: 1
--- !u!114 &689663089
MonoBehaviour:
  m_ObjectHideFlags: 0
  m_CorrespondingSourceObject: {fileID: 0}
  m_PrefabInstance: {fileID: 0}
  m_PrefabAsset: {fileID: 0}
  m_GameObject: {fileID: 689663088}
  m_Enabled: 1
  m_EditorHideFlags: 0
  m_Script: {fileID: 11500000, guid: 4f231c4fb786f3946a6b90b886c48677, type: 3}
  m_Name: 
  m_EditorClassIdentifier: 
  m_HorizontalAxis: Horizontal
  m_VerticalAxis: Vertical
  m_SubmitButton: Submit
  m_CancelButton: Cancel
  m_InputActionsPerSecond: 10
  m_RepeatDelay: 0.5
  m_ForceModuleActive: 0
--- !u!114 &689663090
MonoBehaviour:
  m_ObjectHideFlags: 0
  m_CorrespondingSourceObject: {fileID: 0}
  m_PrefabInstance: {fileID: 0}
  m_PrefabAsset: {fileID: 0}
  m_GameObject: {fileID: 689663088}
  m_Enabled: 1
  m_EditorHideFlags: 0
  m_Script: {fileID: 11500000, guid: 76c392e42b5098c458856cdf6ecaaaa1, type: 3}
  m_Name: 
  m_EditorClassIdentifier: 
  m_FirstSelected: {fileID: 0}
  m_sendNavigationEvents: 1
  m_DragThreshold: 10
--- !u!4 &689663091
Transform:
  m_ObjectHideFlags: 0
  m_CorrespondingSourceObject: {fileID: 0}
  m_PrefabInstance: {fileID: 0}
  m_PrefabAsset: {fileID: 0}
  m_GameObject: {fileID: 689663088}
  m_LocalRotation: {x: 0, y: 0, z: 0, w: 1}
  m_LocalPosition: {x: 0, y: 0, z: 0}
  m_LocalScale: {x: 1, y: 1, z: 1}
  m_Children: []
  m_Father: {fileID: 0}
  m_RootOrder: 3
  m_LocalEulerAnglesHint: {x: 0, y: 0, z: 0}
--- !u!1 &738637103
GameObject:
  m_ObjectHideFlags: 0
  m_CorrespondingSourceObject: {fileID: 0}
  m_PrefabInstance: {fileID: 0}
  m_PrefabAsset: {fileID: 0}
  serializedVersion: 6
  m_Component:
  - component: {fileID: 738637106}
  - component: {fileID: 738637105}
  - component: {fileID: 738637104}
  - component: {fileID: 738637107}
  m_Layer: 0
  m_Name: Main Camera
  m_TagString: MainCamera
  m_Icon: {fileID: 0}
  m_NavMeshLayer: 0
  m_StaticEditorFlags: 0
  m_IsActive: 1
--- !u!81 &738637104
AudioListener:
  m_ObjectHideFlags: 0
  m_CorrespondingSourceObject: {fileID: 0}
  m_PrefabInstance: {fileID: 0}
  m_PrefabAsset: {fileID: 0}
  m_GameObject: {fileID: 738637103}
  m_Enabled: 1
--- !u!20 &738637105
Camera:
  m_ObjectHideFlags: 0
  m_CorrespondingSourceObject: {fileID: 0}
  m_PrefabInstance: {fileID: 0}
  m_PrefabAsset: {fileID: 0}
  m_GameObject: {fileID: 738637103}
  m_Enabled: 1
  serializedVersion: 2
  m_ClearFlags: 1
  m_BackGroundColor: {r: 0, g: 0, b: 0, a: 0}
  m_projectionMatrixMode: 1
  m_GateFitMode: 2
  m_FOVAxisMode: 0
  m_SensorSize: {x: 36, y: 24}
  m_LensShift: {x: 0, y: 0}
  m_FocalLength: 50
  m_NormalizedViewPortRect:
    serializedVersion: 2
    x: 0
    y: 0
    width: 1
    height: 1
  near clip plane: 0.3
  far clip plane: 1000
  field of view: 60
  orthographic: 1
  orthographic size: 5
  m_Depth: -1
  m_CullingMask:
    serializedVersion: 2
    m_Bits: 4294967295
  m_RenderingPath: -1
  m_TargetTexture: {fileID: 0}
  m_TargetDisplay: 0
  m_TargetEye: 3
  m_HDR: 1
  m_AllowMSAA: 1
  m_AllowDynamicResolution: 0
  m_ForceIntoRT: 0
  m_OcclusionCulling: 1
  m_StereoConvergence: 10
  m_StereoSeparation: 0.022
--- !u!4 &738637106
Transform:
  m_ObjectHideFlags: 0
  m_CorrespondingSourceObject: {fileID: 0}
  m_PrefabInstance: {fileID: 0}
  m_PrefabAsset: {fileID: 0}
  m_GameObject: {fileID: 738637103}
  m_LocalRotation: {x: 0, y: 0, z: 0, w: 1}
  m_LocalPosition: {x: 0, y: 0, z: -10}
  m_LocalScale: {x: 1, y: 1, z: 1}
  m_Children: []
  m_Father: {fileID: 0}
  m_RootOrder: 0
  m_LocalEulerAnglesHint: {x: 0, y: 0, z: 0}
--- !u!114 &738637107
MonoBehaviour:
  m_ObjectHideFlags: 0
  m_CorrespondingSourceObject: {fileID: 0}
  m_PrefabInstance: {fileID: 0}
  m_PrefabAsset: {fileID: 0}
  m_GameObject: {fileID: 738637103}
  m_Enabled: 1
  m_EditorHideFlags: 0
  m_Script: {fileID: 11500000, guid: 19c7823a213bfb0499173d7fb947c1d4, type: 3}
  m_Name: 
  m_EditorClassIdentifier: 
  _target: {fileID: 0}
  _shakeMagnitude: 0.1
  _dampingSpeed: 1
  _shakeDuration: 0.1
--- !u!224 &768579870 stripped
RectTransform:
  m_CorrespondingSourceObject: {fileID: 7456085791833825867, guid: d9968a474a679694382c67203bb3cd64, type: 3}
  m_PrefabInstance: {fileID: 7456085792165215061}
  m_PrefabAsset: {fileID: 0}
--- !u!114 &768579871 stripped
MonoBehaviour:
  m_CorrespondingSourceObject: {fileID: 7456085791833825866, guid: d9968a474a679694382c67203bb3cd64, type: 3}
  m_PrefabInstance: {fileID: 7456085792165215061}
  m_PrefabAsset: {fileID: 0}
  m_GameObject: {fileID: 0}
  m_Enabled: 1
  m_EditorHideFlags: 0
  m_Script: {fileID: 11500000, guid: f9bbe4f4c66275948bae6124b3f5494d, type: 3}
  m_Name: 
  m_EditorClassIdentifier: 
--- !u!224 &958138828 stripped
RectTransform:
  m_CorrespondingSourceObject: {fileID: 8734913273848511993, guid: 88bc1dbb7e0b7374682538c6a9d6829e, type: 3}
  m_PrefabInstance: {fileID: 8734913274502034485}
  m_PrefabAsset: {fileID: 0}
--- !u!1 &1761293918 stripped
GameObject:
  m_CorrespondingSourceObject: {fileID: 6733532331695362945, guid: d55ae86e7ff584a4a89387fcc7e7b8ea, type: 3}
  m_PrefabInstance: {fileID: 6733532331030898143}
  m_PrefabAsset: {fileID: 0}
--- !u!224 &1761293919 stripped
RectTransform:
  m_CorrespondingSourceObject: {fileID: 6733532331695362944, guid: d55ae86e7ff584a4a89387fcc7e7b8ea, type: 3}
  m_PrefabInstance: {fileID: 6733532331030898143}
  m_PrefabAsset: {fileID: 0}
--- !u!95 &1761293922
Animator:
  serializedVersion: 3
  m_ObjectHideFlags: 0
  m_CorrespondingSourceObject: {fileID: 0}
  m_PrefabInstance: {fileID: 0}
  m_PrefabAsset: {fileID: 0}
  m_GameObject: {fileID: 1761293918}
  m_Enabled: 1
  m_Avatar: {fileID: 0}
  m_Controller: {fileID: 9100000, guid: fde51eb8aca5e1c4cb76e200bdc96286, type: 2}
  m_CullingMode: 0
  m_UpdateMode: 0
  m_ApplyRootMotion: 0
  m_LinearVelocityBlending: 0
  m_WarningMessage: 
  m_HasTransformHierarchy: 1
  m_AllowConstantClipSamplingOptimization: 1
  m_KeepAnimatorControllerStateOnDisable: 0
--- !u!82 &1761293923
AudioSource:
  m_ObjectHideFlags: 0
  m_CorrespondingSourceObject: {fileID: 0}
  m_PrefabInstance: {fileID: 0}
  m_PrefabAsset: {fileID: 0}
  m_GameObject: {fileID: 1761293918}
  m_Enabled: 1
  serializedVersion: 4
  OutputAudioMixerGroup: {fileID: 0}
  m_audioClip: {fileID: 8300000, guid: f570ee292c56dd44c8944a705301599a, type: 3}
  m_PlayOnAwake: 1
  m_Volume: 0.15
  m_Pitch: 1
  Loop: 0
  Mute: 0
  Spatialize: 0
  SpatializePostEffects: 0
  Priority: 128
  DopplerLevel: 1
  MinDistance: 1
  MaxDistance: 500
  Pan2D: 0
  rolloffMode: 0
  BypassEffects: 0
  BypassListenerEffects: 0
  BypassReverbZones: 0
  rolloffCustomCurve:
    serializedVersion: 2
    m_Curve:
    - serializedVersion: 3
      time: 0
      value: 1
      inSlope: 0
      outSlope: 0
      tangentMode: 0
      weightedMode: 0
      inWeight: 0.33333334
      outWeight: 0.33333334
    - serializedVersion: 3
      time: 1
      value: 0
      inSlope: 0
      outSlope: 0
      tangentMode: 0
      weightedMode: 0
      inWeight: 0.33333334
      outWeight: 0.33333334
    m_PreInfinity: 2
    m_PostInfinity: 2
    m_RotationOrder: 4
  panLevelCustomCurve:
    serializedVersion: 2
    m_Curve:
    - serializedVersion: 3
      time: 0
      value: 0
      inSlope: 0
      outSlope: 0
      tangentMode: 0
      weightedMode: 0
      inWeight: 0.33333334
      outWeight: 0.33333334
    m_PreInfinity: 2
    m_PostInfinity: 2
    m_RotationOrder: 4
  spreadCustomCurve:
    serializedVersion: 2
    m_Curve:
    - serializedVersion: 3
      time: 0
      value: 0
      inSlope: 0
      outSlope: 0
      tangentMode: 0
      weightedMode: 0
      inWeight: 0.33333334
      outWeight: 0.33333334
    m_PreInfinity: 2
    m_PostInfinity: 2
    m_RotationOrder: 4
  reverbZoneMixCustomCurve:
    serializedVersion: 2
    m_Curve:
    - serializedVersion: 3
      time: 0
      value: 0
      inSlope: 0
      outSlope: 0
      tangentMode: 0
      weightedMode: 0
      inWeight: 0.33333334
      outWeight: 0.33333334
    m_PreInfinity: 2
    m_PostInfinity: 2
    m_RotationOrder: 4
--- !u!1001 &1970151659
PrefabInstance:
  m_ObjectHideFlags: 0
  serializedVersion: 2
  m_Modification:
    m_TransformParent: {fileID: 127468003}
    m_Modifications:
    - target: {fileID: 3808645167328581050, guid: 1289cb319918673439b48b99f5b6ad62, type: 3}
      propertyPath: m_Name
      value: CreditsScreen
      objectReference: {fileID: 0}
    - target: {fileID: 3808645167328581050, guid: 1289cb319918673439b48b99f5b6ad62, type: 3}
      propertyPath: m_IsActive
      value: 0
      objectReference: {fileID: 0}
    - target: {fileID: 3808645167328581051, guid: 1289cb319918673439b48b99f5b6ad62, type: 3}
      propertyPath: m_LocalPosition.x
      value: 0
      objectReference: {fileID: 0}
    - target: {fileID: 3808645167328581051, guid: 1289cb319918673439b48b99f5b6ad62, type: 3}
      propertyPath: m_LocalPosition.y
      value: 0
      objectReference: {fileID: 0}
    - target: {fileID: 3808645167328581051, guid: 1289cb319918673439b48b99f5b6ad62, type: 3}
      propertyPath: m_LocalPosition.z
      value: 0
      objectReference: {fileID: 0}
    - target: {fileID: 3808645167328581051, guid: 1289cb319918673439b48b99f5b6ad62, type: 3}
      propertyPath: m_LocalRotation.x
      value: 0
      objectReference: {fileID: 0}
    - target: {fileID: 3808645167328581051, guid: 1289cb319918673439b48b99f5b6ad62, type: 3}
      propertyPath: m_LocalRotation.y
      value: 0
      objectReference: {fileID: 0}
    - target: {fileID: 3808645167328581051, guid: 1289cb319918673439b48b99f5b6ad62, type: 3}
      propertyPath: m_LocalRotation.z
      value: 0
      objectReference: {fileID: 0}
    - target: {fileID: 3808645167328581051, guid: 1289cb319918673439b48b99f5b6ad62, type: 3}
      propertyPath: m_LocalRotation.w
      value: 1
      objectReference: {fileID: 0}
    - target: {fileID: 3808645167328581051, guid: 1289cb319918673439b48b99f5b6ad62, type: 3}
      propertyPath: m_RootOrder
      value: 5
      objectReference: {fileID: 0}
    - target: {fileID: 3808645167328581051, guid: 1289cb319918673439b48b99f5b6ad62, type: 3}
      propertyPath: m_LocalEulerAnglesHint.x
      value: 0
      objectReference: {fileID: 0}
    - target: {fileID: 3808645167328581051, guid: 1289cb319918673439b48b99f5b6ad62, type: 3}
      propertyPath: m_LocalEulerAnglesHint.y
      value: 0
      objectReference: {fileID: 0}
    - target: {fileID: 3808645167328581051, guid: 1289cb319918673439b48b99f5b6ad62, type: 3}
      propertyPath: m_LocalEulerAnglesHint.z
      value: 0
      objectReference: {fileID: 0}
    - target: {fileID: 3808645167328581051, guid: 1289cb319918673439b48b99f5b6ad62, type: 3}
      propertyPath: m_AnchoredPosition.x
      value: 0
      objectReference: {fileID: 0}
    - target: {fileID: 3808645167328581051, guid: 1289cb319918673439b48b99f5b6ad62, type: 3}
      propertyPath: m_AnchoredPosition.y
      value: 0
      objectReference: {fileID: 0}
    - target: {fileID: 3808645167328581051, guid: 1289cb319918673439b48b99f5b6ad62, type: 3}
      propertyPath: m_SizeDelta.x
      value: 0
      objectReference: {fileID: 0}
    - target: {fileID: 3808645167328581051, guid: 1289cb319918673439b48b99f5b6ad62, type: 3}
      propertyPath: m_SizeDelta.y
      value: 0
      objectReference: {fileID: 0}
    - target: {fileID: 3808645167328581051, guid: 1289cb319918673439b48b99f5b6ad62, type: 3}
      propertyPath: m_AnchorMin.x
      value: 0
      objectReference: {fileID: 0}
    - target: {fileID: 3808645167328581051, guid: 1289cb319918673439b48b99f5b6ad62, type: 3}
      propertyPath: m_AnchorMin.y
      value: 0
      objectReference: {fileID: 0}
    - target: {fileID: 3808645167328581051, guid: 1289cb319918673439b48b99f5b6ad62, type: 3}
      propertyPath: m_AnchorMax.x
      value: 1
      objectReference: {fileID: 0}
    - target: {fileID: 3808645167328581051, guid: 1289cb319918673439b48b99f5b6ad62, type: 3}
      propertyPath: m_AnchorMax.y
      value: 1
      objectReference: {fileID: 0}
    - target: {fileID: 3808645167328581051, guid: 1289cb319918673439b48b99f5b6ad62, type: 3}
      propertyPath: m_Pivot.x
      value: 0.5
      objectReference: {fileID: 0}
    - target: {fileID: 3808645167328581051, guid: 1289cb319918673439b48b99f5b6ad62, type: 3}
      propertyPath: m_Pivot.y
      value: 0.5
      objectReference: {fileID: 0}
    m_RemovedComponents: []
  m_SourcePrefab: {fileID: 100100000, guid: 1289cb319918673439b48b99f5b6ad62, type: 3}
--- !u!224 &1970151660 stripped
RectTransform:
  m_CorrespondingSourceObject: {fileID: 3808645167328581051, guid: 1289cb319918673439b48b99f5b6ad62, type: 3}
  m_PrefabInstance: {fileID: 1970151659}
  m_PrefabAsset: {fileID: 0}
--- !u!1001 &364690330396143499
PrefabInstance:
  m_ObjectHideFlags: 0
  serializedVersion: 2
  m_Modification:
    m_TransformParent: {fileID: 127468003}
    m_Modifications:
    - target: {fileID: 531956183825779474, guid: 3261ce32798767443b44b31f290ade01, type: 3}
      propertyPath: m_Name
      value: DeathScreen
      objectReference: {fileID: 0}
    - target: {fileID: 531956183825779474, guid: 3261ce32798767443b44b31f290ade01, type: 3}
      propertyPath: m_IsActive
      value: 0
      objectReference: {fileID: 0}
    - target: {fileID: 8106597736842877405, guid: 3261ce32798767443b44b31f290ade01, type: 3}
      propertyPath: m_LocalPosition.x
      value: 0
      objectReference: {fileID: 0}
    - target: {fileID: 8106597736842877405, guid: 3261ce32798767443b44b31f290ade01, type: 3}
      propertyPath: m_LocalPosition.y
      value: 0
      objectReference: {fileID: 0}
    - target: {fileID: 8106597736842877405, guid: 3261ce32798767443b44b31f290ade01, type: 3}
      propertyPath: m_LocalPosition.z
      value: 0
      objectReference: {fileID: 0}
    - target: {fileID: 8106597736842877405, guid: 3261ce32798767443b44b31f290ade01, type: 3}
      propertyPath: m_LocalRotation.x
      value: 0
      objectReference: {fileID: 0}
    - target: {fileID: 8106597736842877405, guid: 3261ce32798767443b44b31f290ade01, type: 3}
      propertyPath: m_LocalRotation.y
      value: 0
      objectReference: {fileID: 0}
    - target: {fileID: 8106597736842877405, guid: 3261ce32798767443b44b31f290ade01, type: 3}
      propertyPath: m_LocalRotation.z
      value: 0
      objectReference: {fileID: 0}
    - target: {fileID: 8106597736842877405, guid: 3261ce32798767443b44b31f290ade01, type: 3}
      propertyPath: m_LocalRotation.w
      value: 1
      objectReference: {fileID: 0}
    - target: {fileID: 8106597736842877405, guid: 3261ce32798767443b44b31f290ade01, type: 3}
      propertyPath: m_RootOrder
      value: 4
      objectReference: {fileID: 0}
    - target: {fileID: 8106597736842877405, guid: 3261ce32798767443b44b31f290ade01, type: 3}
      propertyPath: m_LocalEulerAnglesHint.x
      value: 0
      objectReference: {fileID: 0}
    - target: {fileID: 8106597736842877405, guid: 3261ce32798767443b44b31f290ade01, type: 3}
      propertyPath: m_LocalEulerAnglesHint.y
      value: 0
      objectReference: {fileID: 0}
    - target: {fileID: 8106597736842877405, guid: 3261ce32798767443b44b31f290ade01, type: 3}
      propertyPath: m_LocalEulerAnglesHint.z
      value: 0
      objectReference: {fileID: 0}
    - target: {fileID: 8106597736842877405, guid: 3261ce32798767443b44b31f290ade01, type: 3}
      propertyPath: m_AnchoredPosition.x
      value: 0
      objectReference: {fileID: 0}
    - target: {fileID: 8106597736842877405, guid: 3261ce32798767443b44b31f290ade01, type: 3}
      propertyPath: m_AnchoredPosition.y
      value: 0
      objectReference: {fileID: 0}
    - target: {fileID: 8106597736842877405, guid: 3261ce32798767443b44b31f290ade01, type: 3}
      propertyPath: m_SizeDelta.x
      value: 0
      objectReference: {fileID: 0}
    - target: {fileID: 8106597736842877405, guid: 3261ce32798767443b44b31f290ade01, type: 3}
      propertyPath: m_SizeDelta.y
      value: 0
      objectReference: {fileID: 0}
    - target: {fileID: 8106597736842877405, guid: 3261ce32798767443b44b31f290ade01, type: 3}
      propertyPath: m_AnchorMin.x
      value: 0
      objectReference: {fileID: 0}
    - target: {fileID: 8106597736842877405, guid: 3261ce32798767443b44b31f290ade01, type: 3}
      propertyPath: m_AnchorMin.y
      value: 0
      objectReference: {fileID: 0}
    - target: {fileID: 8106597736842877405, guid: 3261ce32798767443b44b31f290ade01, type: 3}
      propertyPath: m_AnchorMax.x
      value: 1
      objectReference: {fileID: 0}
    - target: {fileID: 8106597736842877405, guid: 3261ce32798767443b44b31f290ade01, type: 3}
      propertyPath: m_AnchorMax.y
      value: 1
      objectReference: {fileID: 0}
    - target: {fileID: 8106597736842877405, guid: 3261ce32798767443b44b31f290ade01, type: 3}
      propertyPath: m_Pivot.x
      value: 0.5
      objectReference: {fileID: 0}
    - target: {fileID: 8106597736842877405, guid: 3261ce32798767443b44b31f290ade01, type: 3}
      propertyPath: m_Pivot.y
      value: 0.5
      objectReference: {fileID: 0}
    m_RemovedComponents: []
  m_SourcePrefab: {fileID: 100100000, guid: 3261ce32798767443b44b31f290ade01, type: 3}
--- !u!224 &364690330396143500 stripped
RectTransform:
  m_CorrespondingSourceObject: {fileID: 8106597736842877405, guid: 3261ce32798767443b44b31f290ade01, type: 3}
  m_PrefabInstance: {fileID: 364690330396143499}
  m_PrefabAsset: {fileID: 0}
--- !u!1001 &679914859381176722
PrefabInstance:
  m_ObjectHideFlags: 0
  serializedVersion: 2
  m_Modification:
    m_TransformParent: {fileID: 0}
    m_Modifications:
    - target: {fileID: 8519042011638423480, guid: e04ac35326f97443896f61c8cd5dfdc4, type: 3}
      propertyPath: m_Name
      value: GameManager
      objectReference: {fileID: 0}
    - target: {fileID: 8519042011638423481, guid: e04ac35326f97443896f61c8cd5dfdc4, type: 3}
      propertyPath: _mapLevels.Array.size
      value: 23
      objectReference: {fileID: 0}
    - target: {fileID: 8519042011638423481, guid: e04ac35326f97443896f61c8cd5dfdc4, type: 3}
      propertyPath: _transitionScreen
      value: 
      objectReference: {fileID: 768579871}
    - target: {fileID: 8519042011638423481, guid: e04ac35326f97443896f61c8cd5dfdc4, type: 3}
      propertyPath: _startScreen
      value: 
      objectReference: {fileID: 1761293919}
    - target: {fileID: 8519042011638423481, guid: e04ac35326f97443896f61c8cd5dfdc4, type: 3}
      propertyPath: _gameHUD
      value: 
      objectReference: {fileID: 513747188}
    - target: {fileID: 8519042011638423481, guid: e04ac35326f97443896f61c8cd5dfdc4, type: 3}
      propertyPath: _victoryScreen
      value: 
      objectReference: {fileID: 958138828}
    - target: {fileID: 8519042011638423481, guid: e04ac35326f97443896f61c8cd5dfdc4, type: 3}
      propertyPath: _deathScreen
      value: 
      objectReference: {fileID: 364690330396143500}
    - target: {fileID: 8519042011638423481, guid: e04ac35326f97443896f61c8cd5dfdc4, type: 3}
      propertyPath: _creditsScreen
      value: 
      objectReference: {fileID: 1970151660}
    - target: {fileID: 8519042011638423481, guid: e04ac35326f97443896f61c8cd5dfdc4, type: 3}
      propertyPath: _afterLevelTexts.Array.data[23]
      value: 
      objectReference: {fileID: 4900000, guid: b0885bbea7c290949ba897327de33501, type: 3}
    - target: {fileID: 8519042011638423481, guid: e04ac35326f97443896f61c8cd5dfdc4, type: 3}
      propertyPath: _afterLevelTexts.Array.data[24]
      value: 
      objectReference: {fileID: 4900000, guid: cfa2712f592d5f44485597227038108f, type: 3}
    - target: {fileID: 8519042011638423481, guid: e04ac35326f97443896f61c8cd5dfdc4, type: 3}
      propertyPath: _mapLevels.Array.data[23]
      value: 
      objectReference: {fileID: 0}
    - target: {fileID: 8519042011638423482, guid: e04ac35326f97443896f61c8cd5dfdc4, type: 3}
      propertyPath: m_LocalPosition.x
      value: 0
      objectReference: {fileID: 0}
    - target: {fileID: 8519042011638423482, guid: e04ac35326f97443896f61c8cd5dfdc4, type: 3}
      propertyPath: m_LocalPosition.y
      value: 0
      objectReference: {fileID: 0}
    - target: {fileID: 8519042011638423482, guid: e04ac35326f97443896f61c8cd5dfdc4, type: 3}
      propertyPath: m_LocalPosition.z
      value: -10
      objectReference: {fileID: 0}
    - target: {fileID: 8519042011638423482, guid: e04ac35326f97443896f61c8cd5dfdc4, type: 3}
      propertyPath: m_LocalRotation.x
      value: 0
      objectReference: {fileID: 0}
    - target: {fileID: 8519042011638423482, guid: e04ac35326f97443896f61c8cd5dfdc4, type: 3}
      propertyPath: m_LocalRotation.y
      value: 0
      objectReference: {fileID: 0}
    - target: {fileID: 8519042011638423482, guid: e04ac35326f97443896f61c8cd5dfdc4, type: 3}
      propertyPath: m_LocalRotation.z
      value: 0
      objectReference: {fileID: 0}
    - target: {fileID: 8519042011638423482, guid: e04ac35326f97443896f61c8cd5dfdc4, type: 3}
      propertyPath: m_LocalRotation.w
      value: 1
      objectReference: {fileID: 0}
    - target: {fileID: 8519042011638423482, guid: e04ac35326f97443896f61c8cd5dfdc4, type: 3}
      propertyPath: m_RootOrder
      value: 1
      objectReference: {fileID: 0}
    - target: {fileID: 8519042011638423482, guid: e04ac35326f97443896f61c8cd5dfdc4, type: 3}
      propertyPath: m_LocalEulerAnglesHint.x
      value: 0
      objectReference: {fileID: 0}
    - target: {fileID: 8519042011638423482, guid: e04ac35326f97443896f61c8cd5dfdc4, type: 3}
      propertyPath: m_LocalEulerAnglesHint.y
      value: 0
      objectReference: {fileID: 0}
    - target: {fileID: 8519042011638423482, guid: e04ac35326f97443896f61c8cd5dfdc4, type: 3}
      propertyPath: m_LocalEulerAnglesHint.z
      value: 0
      objectReference: {fileID: 0}
    m_RemovedComponents: []
  m_SourcePrefab: {fileID: 100100000, guid: e04ac35326f97443896f61c8cd5dfdc4, type: 3}
--- !u!1001 &1525823884214150305
PrefabInstance:
  m_ObjectHideFlags: 0
  serializedVersion: 2
  m_Modification:
    m_TransformParent: {fileID: 127468003}
    m_Modifications:
    - target: {fileID: 1525823884282022726, guid: aed5558d509075443922e3d969d511d8, type: 3}
      propertyPath: LevelOverlay
      value: 
      objectReference: {fileID: 9175588793552135723}
    - target: {fileID: 3368684171732262205, guid: aed5558d509075443922e3d969d511d8, type: 3}
      propertyPath: m_Name
      value: GameUI
      objectReference: {fileID: 0}
    - target: {fileID: 4753090494367720671, guid: aed5558d509075443922e3d969d511d8, type: 3}
      propertyPath: m_LocalPosition.x
      value: 0
      objectReference: {fileID: 0}
    - target: {fileID: 4753090494367720671, guid: aed5558d509075443922e3d969d511d8, type: 3}
      propertyPath: m_LocalPosition.y
      value: 0
      objectReference: {fileID: 0}
    - target: {fileID: 4753090494367720671, guid: aed5558d509075443922e3d969d511d8, type: 3}
      propertyPath: m_LocalPosition.z
      value: 0
      objectReference: {fileID: 0}
    - target: {fileID: 4753090494367720671, guid: aed5558d509075443922e3d969d511d8, type: 3}
      propertyPath: m_LocalRotation.x
      value: 0
      objectReference: {fileID: 0}
    - target: {fileID: 4753090494367720671, guid: aed5558d509075443922e3d969d511d8, type: 3}
      propertyPath: m_LocalRotation.y
      value: 0
      objectReference: {fileID: 0}
    - target: {fileID: 4753090494367720671, guid: aed5558d509075443922e3d969d511d8, type: 3}
      propertyPath: m_LocalRotation.z
      value: 0
      objectReference: {fileID: 0}
    - target: {fileID: 4753090494367720671, guid: aed5558d509075443922e3d969d511d8, type: 3}
      propertyPath: m_LocalRotation.w
      value: 1
      objectReference: {fileID: 0}
    - target: {fileID: 4753090494367720671, guid: aed5558d509075443922e3d969d511d8, type: 3}
      propertyPath: m_RootOrder
      value: 0
      objectReference: {fileID: 0}
    - target: {fileID: 4753090494367720671, guid: aed5558d509075443922e3d969d511d8, type: 3}
      propertyPath: m_LocalEulerAnglesHint.x
      value: 0
      objectReference: {fileID: 0}
    - target: {fileID: 4753090494367720671, guid: aed5558d509075443922e3d969d511d8, type: 3}
      propertyPath: m_LocalEulerAnglesHint.y
      value: 0
      objectReference: {fileID: 0}
    - target: {fileID: 4753090494367720671, guid: aed5558d509075443922e3d969d511d8, type: 3}
      propertyPath: m_LocalEulerAnglesHint.z
      value: 0
      objectReference: {fileID: 0}
    - target: {fileID: 4753090494367720671, guid: aed5558d509075443922e3d969d511d8, type: 3}
      propertyPath: m_AnchoredPosition.x
      value: 0
      objectReference: {fileID: 0}
    - target: {fileID: 4753090494367720671, guid: aed5558d509075443922e3d969d511d8, type: 3}
      propertyPath: m_AnchoredPosition.y
      value: 0
      objectReference: {fileID: 0}
    - target: {fileID: 4753090494367720671, guid: aed5558d509075443922e3d969d511d8, type: 3}
      propertyPath: m_SizeDelta.x
      value: 0
      objectReference: {fileID: 0}
    - target: {fileID: 4753090494367720671, guid: aed5558d509075443922e3d969d511d8, type: 3}
      propertyPath: m_SizeDelta.y
      value: 0
      objectReference: {fileID: 0}
    - target: {fileID: 4753090494367720671, guid: aed5558d509075443922e3d969d511d8, type: 3}
      propertyPath: m_AnchorMin.x
      value: 0
      objectReference: {fileID: 0}
    - target: {fileID: 4753090494367720671, guid: aed5558d509075443922e3d969d511d8, type: 3}
      propertyPath: m_AnchorMin.y
      value: 0
      objectReference: {fileID: 0}
    - target: {fileID: 4753090494367720671, guid: aed5558d509075443922e3d969d511d8, type: 3}
      propertyPath: m_AnchorMax.x
      value: 1
      objectReference: {fileID: 0}
    - target: {fileID: 4753090494367720671, guid: aed5558d509075443922e3d969d511d8, type: 3}
      propertyPath: m_AnchorMax.y
      value: 1
      objectReference: {fileID: 0}
    - target: {fileID: 4753090494367720671, guid: aed5558d509075443922e3d969d511d8, type: 3}
      propertyPath: m_Pivot.x
      value: 0.5
      objectReference: {fileID: 0}
    - target: {fileID: 4753090494367720671, guid: aed5558d509075443922e3d969d511d8, type: 3}
      propertyPath: m_Pivot.y
      value: 0.5
      objectReference: {fileID: 0}
    m_RemovedComponents: []
  m_SourcePrefab: {fileID: 100100000, guid: aed5558d509075443922e3d969d511d8, type: 3}
--- !u!1001 &6733532331030898143
PrefabInstance:
  m_ObjectHideFlags: 0
  serializedVersion: 2
  m_Modification:
    m_TransformParent: {fileID: 127468003}
    m_Modifications:
    - target: {fileID: 6733532331695362944, guid: d55ae86e7ff584a4a89387fcc7e7b8ea, type: 3}
      propertyPath: m_LocalPosition.x
      value: 0
      objectReference: {fileID: 0}
    - target: {fileID: 6733532331695362944, guid: d55ae86e7ff584a4a89387fcc7e7b8ea, type: 3}
      propertyPath: m_LocalPosition.y
      value: 0
      objectReference: {fileID: 0}
    - target: {fileID: 6733532331695362944, guid: d55ae86e7ff584a4a89387fcc7e7b8ea, type: 3}
      propertyPath: m_LocalPosition.z
      value: 0
      objectReference: {fileID: 0}
    - target: {fileID: 6733532331695362944, guid: d55ae86e7ff584a4a89387fcc7e7b8ea, type: 3}
      propertyPath: m_LocalRotation.x
      value: 0
      objectReference: {fileID: 0}
    - target: {fileID: 6733532331695362944, guid: d55ae86e7ff584a4a89387fcc7e7b8ea, type: 3}
      propertyPath: m_LocalRotation.y
      value: 0
      objectReference: {fileID: 0}
    - target: {fileID: 6733532331695362944, guid: d55ae86e7ff584a4a89387fcc7e7b8ea, type: 3}
      propertyPath: m_LocalRotation.z
      value: 0
      objectReference: {fileID: 0}
    - target: {fileID: 6733532331695362944, guid: d55ae86e7ff584a4a89387fcc7e7b8ea, type: 3}
      propertyPath: m_LocalRotation.w
      value: 1
      objectReference: {fileID: 0}
    - target: {fileID: 6733532331695362944, guid: d55ae86e7ff584a4a89387fcc7e7b8ea, type: 3}
      propertyPath: m_RootOrder
      value: 2
      objectReference: {fileID: 0}
    - target: {fileID: 6733532331695362944, guid: d55ae86e7ff584a4a89387fcc7e7b8ea, type: 3}
      propertyPath: m_LocalEulerAnglesHint.x
      value: 0
      objectReference: {fileID: 0}
    - target: {fileID: 6733532331695362944, guid: d55ae86e7ff584a4a89387fcc7e7b8ea, type: 3}
      propertyPath: m_LocalEulerAnglesHint.y
      value: 0
      objectReference: {fileID: 0}
    - target: {fileID: 6733532331695362944, guid: d55ae86e7ff584a4a89387fcc7e7b8ea, type: 3}
      propertyPath: m_LocalEulerAnglesHint.z
      value: 0
      objectReference: {fileID: 0}
    - target: {fileID: 6733532331695362944, guid: d55ae86e7ff584a4a89387fcc7e7b8ea, type: 3}
      propertyPath: m_AnchoredPosition.x
      value: 0
      objectReference: {fileID: 0}
    - target: {fileID: 6733532331695362944, guid: d55ae86e7ff584a4a89387fcc7e7b8ea, type: 3}
      propertyPath: m_AnchoredPosition.y
      value: -0.0009765625
      objectReference: {fileID: 0}
    - target: {fileID: 6733532331695362944, guid: d55ae86e7ff584a4a89387fcc7e7b8ea, type: 3}
      propertyPath: m_SizeDelta.x
      value: 0
      objectReference: {fileID: 0}
    - target: {fileID: 6733532331695362944, guid: d55ae86e7ff584a4a89387fcc7e7b8ea, type: 3}
      propertyPath: m_SizeDelta.y
      value: 0
      objectReference: {fileID: 0}
    - target: {fileID: 6733532331695362944, guid: d55ae86e7ff584a4a89387fcc7e7b8ea, type: 3}
      propertyPath: m_AnchorMin.x
      value: 0
      objectReference: {fileID: 0}
    - target: {fileID: 6733532331695362944, guid: d55ae86e7ff584a4a89387fcc7e7b8ea, type: 3}
      propertyPath: m_AnchorMin.y
      value: 0
      objectReference: {fileID: 0}
    - target: {fileID: 6733532331695362944, guid: d55ae86e7ff584a4a89387fcc7e7b8ea, type: 3}
      propertyPath: m_AnchorMax.x
      value: 1
      objectReference: {fileID: 0}
    - target: {fileID: 6733532331695362944, guid: d55ae86e7ff584a4a89387fcc7e7b8ea, type: 3}
      propertyPath: m_AnchorMax.y
      value: 1
      objectReference: {fileID: 0}
    - target: {fileID: 6733532331695362944, guid: d55ae86e7ff584a4a89387fcc7e7b8ea, type: 3}
      propertyPath: m_Pivot.x
      value: 0.5
      objectReference: {fileID: 0}
    - target: {fileID: 6733532331695362944, guid: d55ae86e7ff584a4a89387fcc7e7b8ea, type: 3}
      propertyPath: m_Pivot.y
      value: 0.5
      objectReference: {fileID: 0}
    - target: {fileID: 6733532331695362945, guid: d55ae86e7ff584a4a89387fcc7e7b8ea, type: 3}
      propertyPath: m_Name
      value: StartScreen
      objectReference: {fileID: 0}
    - target: {fileID: 6733532331695363007, guid: d55ae86e7ff584a4a89387fcc7e7b8ea, type: 3}
      propertyPath: m_Type
      value: 0
      objectReference: {fileID: 0}
    - target: {fileID: 6733532331695363007, guid: d55ae86e7ff584a4a89387fcc7e7b8ea, type: 3}
      propertyPath: m_PixelsPerUnitMultiplier
      value: 100
      objectReference: {fileID: 0}
    - target: {fileID: 6733532331695363007, guid: d55ae86e7ff584a4a89387fcc7e7b8ea, type: 3}
      propertyPath: m_UseSpriteMesh
      value: 0
      objectReference: {fileID: 0}
    - target: {fileID: 6733532331695363007, guid: d55ae86e7ff584a4a89387fcc7e7b8ea, type: 3}
      propertyPath: m_PreserveAspect
      value: 1
      objectReference: {fileID: 0}
    - target: {fileID: 6733532331695363007, guid: d55ae86e7ff584a4a89387fcc7e7b8ea, type: 3}
      propertyPath: m_FillCenter
      value: 1
      objectReference: {fileID: 0}
    - target: {fileID: 6733532331695363007, guid: d55ae86e7ff584a4a89387fcc7e7b8ea, type: 3}
      propertyPath: m_FillAmount
      value: 1
      objectReference: {fileID: 0}
    - target: {fileID: 6733532331695363007, guid: d55ae86e7ff584a4a89387fcc7e7b8ea, type: 3}
      propertyPath: m_Sprite
      value: 
      objectReference: {fileID: 21300000, guid: 5ce079b7e30144a4a88149ea8abd2861, type: 3}
    m_RemovedComponents: []
  m_SourcePrefab: {fileID: 100100000, guid: d55ae86e7ff584a4a89387fcc7e7b8ea, type: 3}
--- !u!1001 &7456085792165215061
PrefabInstance:
  m_ObjectHideFlags: 0
  serializedVersion: 2
  m_Modification:
    m_TransformParent: {fileID: 127468003}
    m_Modifications:
    - target: {fileID: 7456085791833825864, guid: d9968a474a679694382c67203bb3cd64, type: 3}
      propertyPath: m_Name
      value: TransitionScreen
      objectReference: {fileID: 0}
    - target: {fileID: 7456085791833825867, guid: d9968a474a679694382c67203bb3cd64, type: 3}
      propertyPath: m_LocalPosition.x
      value: 0
      objectReference: {fileID: 0}
    - target: {fileID: 7456085791833825867, guid: d9968a474a679694382c67203bb3cd64, type: 3}
      propertyPath: m_LocalPosition.y
      value: 0
      objectReference: {fileID: 0}
    - target: {fileID: 7456085791833825867, guid: d9968a474a679694382c67203bb3cd64, type: 3}
      propertyPath: m_LocalPosition.z
      value: 0
      objectReference: {fileID: 0}
    - target: {fileID: 7456085791833825867, guid: d9968a474a679694382c67203bb3cd64, type: 3}
      propertyPath: m_LocalRotation.x
      value: 0
      objectReference: {fileID: 0}
    - target: {fileID: 7456085791833825867, guid: d9968a474a679694382c67203bb3cd64, type: 3}
      propertyPath: m_LocalRotation.y
      value: 0
      objectReference: {fileID: 0}
    - target: {fileID: 7456085791833825867, guid: d9968a474a679694382c67203bb3cd64, type: 3}
      propertyPath: m_LocalRotation.z
      value: 0
      objectReference: {fileID: 0}
    - target: {fileID: 7456085791833825867, guid: d9968a474a679694382c67203bb3cd64, type: 3}
      propertyPath: m_LocalRotation.w
      value: 1
      objectReference: {fileID: 0}
    - target: {fileID: 7456085791833825867, guid: d9968a474a679694382c67203bb3cd64, type: 3}
      propertyPath: m_RootOrder
      value: 1
      objectReference: {fileID: 0}
    - target: {fileID: 7456085791833825867, guid: d9968a474a679694382c67203bb3cd64, type: 3}
      propertyPath: m_LocalEulerAnglesHint.x
      value: 0
      objectReference: {fileID: 0}
    - target: {fileID: 7456085791833825867, guid: d9968a474a679694382c67203bb3cd64, type: 3}
      propertyPath: m_LocalEulerAnglesHint.y
      value: 0
      objectReference: {fileID: 0}
    - target: {fileID: 7456085791833825867, guid: d9968a474a679694382c67203bb3cd64, type: 3}
      propertyPath: m_LocalEulerAnglesHint.z
      value: 0
      objectReference: {fileID: 0}
    - target: {fileID: 7456085791833825867, guid: d9968a474a679694382c67203bb3cd64, type: 3}
      propertyPath: m_AnchoredPosition.x
      value: 0
      objectReference: {fileID: 0}
    - target: {fileID: 7456085791833825867, guid: d9968a474a679694382c67203bb3cd64, type: 3}
      propertyPath: m_AnchoredPosition.y
      value: 0
      objectReference: {fileID: 0}
    - target: {fileID: 7456085791833825867, guid: d9968a474a679694382c67203bb3cd64, type: 3}
      propertyPath: m_SizeDelta.x
      value: 0
      objectReference: {fileID: 0}
    - target: {fileID: 7456085791833825867, guid: d9968a474a679694382c67203bb3cd64, type: 3}
      propertyPath: m_SizeDelta.y
      value: 0
      objectReference: {fileID: 0}
    - target: {fileID: 7456085791833825867, guid: d9968a474a679694382c67203bb3cd64, type: 3}
      propertyPath: m_AnchorMin.x
      value: 0
      objectReference: {fileID: 0}
    - target: {fileID: 7456085791833825867, guid: d9968a474a679694382c67203bb3cd64, type: 3}
      propertyPath: m_AnchorMin.y
      value: 0
      objectReference: {fileID: 0}
    - target: {fileID: 7456085791833825867, guid: d9968a474a679694382c67203bb3cd64, type: 3}
      propertyPath: m_AnchorMax.x
      value: 1
      objectReference: {fileID: 0}
    - target: {fileID: 7456085791833825867, guid: d9968a474a679694382c67203bb3cd64, type: 3}
      propertyPath: m_AnchorMax.y
      value: 1
      objectReference: {fileID: 0}
    - target: {fileID: 7456085791833825867, guid: d9968a474a679694382c67203bb3cd64, type: 3}
      propertyPath: m_Pivot.x
      value: 0.5
      objectReference: {fileID: 0}
    - target: {fileID: 7456085791833825867, guid: d9968a474a679694382c67203bb3cd64, type: 3}
      propertyPath: m_Pivot.y
      value: 0.5
      objectReference: {fileID: 0}
    m_RemovedComponents: []
  m_SourcePrefab: {fileID: 100100000, guid: d9968a474a679694382c67203bb3cd64, type: 3}
--- !u!1001 &8734913274502034485
PrefabInstance:
  m_ObjectHideFlags: 0
  serializedVersion: 2
  m_Modification:
    m_TransformParent: {fileID: 127468003}
    m_Modifications:
    - target: {fileID: 8734913273848511993, guid: 88bc1dbb7e0b7374682538c6a9d6829e, type: 3}
      propertyPath: m_LocalPosition.x
      value: 0
      objectReference: {fileID: 0}
    - target: {fileID: 8734913273848511993, guid: 88bc1dbb7e0b7374682538c6a9d6829e, type: 3}
      propertyPath: m_LocalPosition.y
      value: 0
      objectReference: {fileID: 0}
    - target: {fileID: 8734913273848511993, guid: 88bc1dbb7e0b7374682538c6a9d6829e, type: 3}
      propertyPath: m_LocalPosition.z
      value: 0
      objectReference: {fileID: 0}
    - target: {fileID: 8734913273848511993, guid: 88bc1dbb7e0b7374682538c6a9d6829e, type: 3}
      propertyPath: m_LocalRotation.x
      value: 0
      objectReference: {fileID: 0}
    - target: {fileID: 8734913273848511993, guid: 88bc1dbb7e0b7374682538c6a9d6829e, type: 3}
      propertyPath: m_LocalRotation.y
      value: 0
      objectReference: {fileID: 0}
    - target: {fileID: 8734913273848511993, guid: 88bc1dbb7e0b7374682538c6a9d6829e, type: 3}
      propertyPath: m_LocalRotation.z
      value: 0
      objectReference: {fileID: 0}
    - target: {fileID: 8734913273848511993, guid: 88bc1dbb7e0b7374682538c6a9d6829e, type: 3}
      propertyPath: m_LocalRotation.w
      value: 1
      objectReference: {fileID: 0}
    - target: {fileID: 8734913273848511993, guid: 88bc1dbb7e0b7374682538c6a9d6829e, type: 3}
      propertyPath: m_RootOrder
      value: 3
      objectReference: {fileID: 0}
    - target: {fileID: 8734913273848511993, guid: 88bc1dbb7e0b7374682538c6a9d6829e, type: 3}
      propertyPath: m_LocalEulerAnglesHint.x
      value: 0
      objectReference: {fileID: 0}
    - target: {fileID: 8734913273848511993, guid: 88bc1dbb7e0b7374682538c6a9d6829e, type: 3}
      propertyPath: m_LocalEulerAnglesHint.y
      value: 0
      objectReference: {fileID: 0}
    - target: {fileID: 8734913273848511993, guid: 88bc1dbb7e0b7374682538c6a9d6829e, type: 3}
      propertyPath: m_LocalEulerAnglesHint.z
      value: 0
      objectReference: {fileID: 0}
    - target: {fileID: 8734913273848511993, guid: 88bc1dbb7e0b7374682538c6a9d6829e, type: 3}
      propertyPath: m_AnchoredPosition.x
      value: 0
      objectReference: {fileID: 0}
    - target: {fileID: 8734913273848511993, guid: 88bc1dbb7e0b7374682538c6a9d6829e, type: 3}
      propertyPath: m_AnchoredPosition.y
      value: 0
      objectReference: {fileID: 0}
    - target: {fileID: 8734913273848511993, guid: 88bc1dbb7e0b7374682538c6a9d6829e, type: 3}
      propertyPath: m_SizeDelta.x
      value: 0
      objectReference: {fileID: 0}
    - target: {fileID: 8734913273848511993, guid: 88bc1dbb7e0b7374682538c6a9d6829e, type: 3}
      propertyPath: m_SizeDelta.y
      value: 0
      objectReference: {fileID: 0}
    - target: {fileID: 8734913273848511993, guid: 88bc1dbb7e0b7374682538c6a9d6829e, type: 3}
      propertyPath: m_AnchorMin.x
      value: 0
      objectReference: {fileID: 0}
    - target: {fileID: 8734913273848511993, guid: 88bc1dbb7e0b7374682538c6a9d6829e, type: 3}
      propertyPath: m_AnchorMin.y
      value: 0
      objectReference: {fileID: 0}
    - target: {fileID: 8734913273848511993, guid: 88bc1dbb7e0b7374682538c6a9d6829e, type: 3}
      propertyPath: m_AnchorMax.x
      value: 1
      objectReference: {fileID: 0}
    - target: {fileID: 8734913273848511993, guid: 88bc1dbb7e0b7374682538c6a9d6829e, type: 3}
      propertyPath: m_AnchorMax.y
      value: 1
      objectReference: {fileID: 0}
    - target: {fileID: 8734913273848511993, guid: 88bc1dbb7e0b7374682538c6a9d6829e, type: 3}
      propertyPath: m_Pivot.x
      value: 0.5
      objectReference: {fileID: 0}
    - target: {fileID: 8734913273848511993, guid: 88bc1dbb7e0b7374682538c6a9d6829e, type: 3}
      propertyPath: m_Pivot.y
      value: 0.5
      objectReference: {fileID: 0}
    - target: {fileID: 8734913273848511998, guid: 88bc1dbb7e0b7374682538c6a9d6829e, type: 3}
      propertyPath: m_Name
      value: VictoryScreen
      objectReference: {fileID: 0}
    - target: {fileID: 8734913273848511998, guid: 88bc1dbb7e0b7374682538c6a9d6829e, type: 3}
      propertyPath: m_IsActive
      value: 0
      objectReference: {fileID: 0}
    m_RemovedComponents: []
  m_SourcePrefab: {fileID: 100100000, guid: 88bc1dbb7e0b7374682538c6a9d6829e, type: 3}
--- !u!114 &9175588793552135723 stripped
MonoBehaviour:
  m_CorrespondingSourceObject: {fileID: 8519042011638423481, guid: e04ac35326f97443896f61c8cd5dfdc4, type: 3}
  m_PrefabInstance: {fileID: 679914859381176722}
  m_PrefabAsset: {fileID: 0}
  m_GameObject: {fileID: 0}
  m_Enabled: 1
  m_EditorHideFlags: 0
  m_Script: {fileID: 11500000, guid: eeb05e503cd25ed468aaaeac690806d1, type: 3}
  m_Name: 
  m_EditorClassIdentifier: 
